…
### Question 5.

Use the results you got from question 4. Pick a word and count the words
that appears after and before it.

``` r
mtsamples %>%
  unnest_ngrams(output = ngram, input = transcription, n = 2) %>%
 separate(ngram, into = c("word1", "word2"), sep = " ") %>%
  select(word1, word2) %>%
  filter(word2 == "patient") %>%
 count(word1, sort = TRUE)
```

    ## # A tibble: 269 × 2
    ##    word1         n
    ##    <chr>     <int>
    ##  1 the       20307
    ##  2 this        470
    ##  3 history     101
    ##  4 a            67
    ##  5 and          47
    ##  6 procedure    32
    ##  7 female       26
    ##  8 with         25
    ##  9 use          24
    ## 10 old          23
    ## # … with 259 more rows

``` r
mtsamples %>%
  unnest_ngrams(output = ngram, input = transcription, n = 2) %>%
  separate(ngram, into = c("word1", "word2"), sep = " ") %>%
  select(word1, word2) %>%
  filter(word1 == "patient") %>%
  count(word2, sort = TRUE)
```

    ## # A tibble: 588 × 2
    ##    word2         n
    ##    <chr>     <int>
    ##  1 was        6293
    ##  2 is         3332
    ##  3 has        1417
    ##  4 tolerated   994
    ##  5 had         888
    ##  6 will        616
    ##  7 denies      552
    ##  8 and         377
    ##  9 states      363
    ## 10 does        334
    ## # … with 578 more rows
…
